<svg width="30" height="30" viewBox="0 0 30 30" fill="none" xmlns="http://www.w3.org/2000/svg">
<path d="M4.65217 11.9322H3.43478L1 28.9878L8.30435 25.3356L15 28.2939L21.6957 25.3356L29 28.9878L26.5652 11.9322H25.3478" stroke="#1B1B1B" stroke-width="1.5" stroke-linecap="round" stroke-linejoin="round"/>
<path d="M23.3146 9.31473C23.3146 15.3165 14.9998 23.68 14.9998 23.68C14.9998 23.68 6.6729 15.353 6.68507 9.31473C6.68507 7.10951 7.56109 4.99463 9.12041 3.4353C10.6797 1.87598 12.7946 1 14.9998 1C17.2051 1 19.3199 1.87598 20.8793 3.4353C22.4386 4.99463 23.3146 7.10951 23.3146 9.31473V9.31473Z" stroke="#1B1B1B" stroke-width="1.5" stroke-miterlimit="10"/>
<path d="M18.7738 9.03483C18.769 9.78018 18.5436 10.5074 18.126 11.1248C17.7084 11.7422 17.1173 12.2222 16.4273 12.5041C15.7373 12.786 14.9793 12.8573 14.2488 12.7089C13.5184 12.5606 12.8482 12.1992 12.3229 11.6705C11.7975 11.1417 11.4405 10.4692 11.2968 9.73781C11.1532 9.00642 11.2293 8.24889 11.5157 7.56072C11.802 6.87254 12.2857 6.28452 12.9058 5.8709C13.5258 5.45729 14.2545 5.23659 14.9999 5.23657C15.4976 5.23656 15.9903 5.33496 16.4498 5.52613C16.9092 5.71731 17.3263 5.99751 17.6771 6.35053C18.0279 6.70356 18.3053 7.12247 18.4936 7.58316C18.6818 8.04384 18.777 8.53718 18.7738 9.03483V9.03483Z" stroke="#1B1B1B" stroke-width="1.5" stroke-miterlimit="10"/>
</svg>
