<svg width="30" height="21" viewBox="0 0 30 21" fill="none" xmlns="http://www.w3.org/2000/svg">
<path d="M20.1973 17.3611H10.0298" stroke="#1B1B1B" stroke-width="1.5" stroke-linecap="round" stroke-linejoin="round"/>
<path d="M25.8412 17.3611H27.1974C27.6763 17.3587 28.1348 17.1671 28.4726 16.8276C28.8103 16.4882 29 16.0288 29 15.55V12.05C28.9995 11.5809 28.8949 11.1178 28.6937 10.6941C28.4924 10.2704 28.1995 9.89664 27.8362 9.59991L24.9051 7.19366C24.338 6.73495 23.6306 6.48471 22.9013 6.48486H14.4051C13.6231 6.48622 12.869 6.7759 12.2874 7.29855L8.86624 10.3786C8.73941 10.4879 8.58509 10.5605 8.41998 10.5886L2.49622 11.6387C2.08186 11.7101 1.70561 11.9241 1.43237 12.2437C1.15914 12.5633 1.00614 12.9683 1 13.3887V15.4886C0.999994 15.9675 1.18965 16.4269 1.52744 16.7663C1.86522 17.1058 2.3237 17.2976 2.80255 17.3H4.61365" stroke="#1B1B1B" stroke-width="1.5" stroke-linecap="round" stroke-linejoin="round"/>
<path d="M7.32627 20.0737C8.82434 20.0737 10.0388 18.8593 10.0388 17.3612C10.0388 15.8631 8.82434 14.6487 7.32627 14.6487C5.8282 14.6487 4.61377 15.8631 4.61377 17.3612C4.61377 18.8593 5.8282 20.0737 7.32627 20.0737Z" stroke="#1B1B1B" stroke-width="1.5" stroke-linecap="round" stroke-linejoin="round"/>
<path d="M23.1285 20.0737C24.6266 20.0737 25.841 18.8593 25.841 17.3612C25.841 15.8631 24.6266 14.6487 23.1285 14.6487C21.6304 14.6487 20.416 15.8631 20.416 17.3612C20.416 18.8593 21.6304 20.0737 23.1285 20.0737Z" stroke="#1B1B1B" stroke-width="1.5" stroke-linecap="round" stroke-linejoin="round"/>
<path d="M29 12.925V9.42496C28.9995 8.95589 28.8949 8.49279 28.6937 8.06909C28.4924 7.6454 28.1995 7.27164 27.8362 6.97491L24.9051 4.56866C24.338 4.10995 23.6306 3.85971 22.9013 3.85986H14.4051C13.6231 3.86122 12.869 4.1509 12.2874 4.67355L8.86624 7.75357C8.73941 7.86293 8.58509 7.93554 8.41998 7.96356L2.49622 9.01373C2.08186 9.08513 1.70561 9.29914 1.43237 9.61871C1.15914 9.93829 1.00614 10.3433 1 10.7637V12.8636" stroke="#1B1B1B" stroke-width="1.5" stroke-linecap="round" stroke-linejoin="round"/>
<path d="M29 10.3V6.79996C28.9995 6.33089 28.8949 5.86779 28.6937 5.44409C28.4924 5.0204 28.1995 4.64664 27.8362 4.34991L24.9051 1.94366C24.338 1.48495 23.6306 1.23471 22.9013 1.23486H14.4051C13.6231 1.23622 12.869 1.5259 12.2874 2.04855L8.86624 5.12857C8.73941 5.23793 8.58509 5.31054 8.41998 5.33856L2.49622 6.38873C2.08186 6.46013 1.70561 6.67414 1.43237 6.99371C1.15914 7.31329 1.00614 7.71832 1 8.13873V10.2386" stroke="#1B1B1B" stroke-width="1.5" stroke-linecap="round" stroke-linejoin="round"/>
</svg>
