<svg width="29" height="30" viewBox="0 0 29 30" fill="none" xmlns="http://www.w3.org/2000/svg">
<path d="M14.783 28.5637H2.19847C1.88062 28.5637 1.57578 28.4375 1.35103 28.2127C1.12627 27.9879 1 27.6831 1 27.3653V7.59159L7.5927 1H20.1794C20.4973 1 20.8021 1.12627 21.0268 1.35102C21.2516 1.57578 21.3779 1.88062 21.3779 2.19847V9.38874" stroke="#1B1B1B" stroke-width="1.5" stroke-linecap="round" stroke-linejoin="round"/>
<path d="M2.79883 8.19028H7.66989L7.59271 1" stroke="#1B1B1B" stroke-width="1.5" stroke-linecap="round" stroke-linejoin="round"/>
<path d="M18.3774 17.7781L20.1751 19.5758L24.3692 15.3811" stroke="#1B1B1B" stroke-width="1.5" stroke-linecap="round" stroke-linejoin="round"/>
<path d="M24.3918 21.7517L26.3113 27.0246L24.2065 27.0257L22.2561 28.5009L20.1216 22.6365" stroke="#1B1B1B" stroke-width="1.5" stroke-linecap="round" stroke-linejoin="round"/>
<path d="M21.19 25.6768L20.1619 28.5009L18.5494 27.1487L16.1067 27.0246L18.0356 21.7263" stroke="#1B1B1B" stroke-width="1.5" stroke-linecap="round" stroke-linejoin="round"/>
<path d="M25.1866 20.992C27.2928 18.8858 27.2928 15.4711 25.1866 13.365C23.0805 11.2588 19.6658 11.2588 17.5596 13.365C15.4535 15.4711 15.4535 18.8859 17.5596 20.992C19.6658 23.0981 23.0805 23.0981 25.1866 20.992Z" stroke="#1B1B1B" stroke-width="1.5" stroke-linecap="round" stroke-linejoin="round"/>
<path d="M3.99609 13.5834H13.5833" stroke="#1B1B1B" stroke-width="1.5" stroke-linejoin="round"/>
<path d="M3.99609 15.9803H13.5833" stroke="#1B1B1B" stroke-width="1.5" stroke-linejoin="round"/>
<path d="M3.99609 18.3773H9.9879" stroke="#1B1B1B" stroke-width="1.5" stroke-linejoin="round"/>
</svg>
